{
  "configVersion": 1,
  "index": "/index.html",
  "assetGroups": [
    {
      "name": "app",
      "installMode": "prefetch",
      "updateMode": "prefetch",
      "urls": [
        "/0.8c421ddf91b8fa98c191.js",
        "/1.fdd5c9f4dc660575e1bc.js",
        "/favicon.ico",
        "/firebase-messaging-sw.js",
        "/index.html",
        "/main.fef3979456debc9772ac.js",
        "/polyfills.f04ab6ec955bb97e2d53.js",
        "/runtime.3a8f3d94e5eda761c715.js",
        "/scripts.b4ac9c7325a06a657b3b.js",
        "/styles.6133e973cb09f2ed3806.css"
      ],
      "patterns": []
    },
    {
      "name": "assets",
      "installMode": "lazy",
      "updateMode": "prefetch",
      "urls": [
        "/assets/css/demo.css",
        "/assets/icons/icon-128x128.png",
        "/assets/icons/icon-144x144.png",
        "/assets/icons/icon-152x152.png",
        "/assets/icons/icon-192x192.png",
        "/assets/icons/icon-384x384.png",
        "/assets/icons/icon-512x512.png",
        "/assets/icons/icon-72x72.png",
        "/assets/icons/icon-96x96.png",
        "/assets/img/angular2-logo-red.png",
        "/assets/img/angular2-logo.png",
        "/assets/img/apple-icon.png",
        "/assets/img/cover.jpeg",
        "/assets/img/faces/marc.jpg",
        "/assets/img/favicon.png",
        "/assets/img/gears.gif",
        "/assets/img/logo.png",
        "/assets/img/mask.png",
        "/assets/img/new_logo.png",
        "/assets/img/sidebar-1.jpg",
        "/assets/img/sidebar-2.jpg",
        "/assets/img/sidebar-3.jpg",
        "/assets/img/sidebar-4.jpg",
        "/assets/img/tim_80x80.png",
        "/assets/scss/core/_alerts.scss",
        "/assets/scss/core/_buttons.scss",
        "/assets/scss/core/_cards.scss",
        "/assets/scss/core/_checkboxes.scss",
        "/assets/scss/core/_dropdown.scss",
        "/assets/scss/core/_example-pages.scss",
        "/assets/scss/core/_fixed-plugin.scss",
        "/assets/scss/core/_footers.scss",
        "/assets/scss/core/_forms.scss",
        "/assets/scss/core/_images.scss",
        "/assets/scss/core/_input-group.scss",
        "/assets/scss/core/_misc.scss",
        "/assets/scss/core/_mixins.scss",
        "/assets/scss/core/_navbar.scss",
        "/assets/scss/core/_popover.scss",
        "/assets/scss/core/_popups.scss",
        "/assets/scss/core/_radios.scss",
        "/assets/scss/core/_responsive.scss",
        "/assets/scss/core/_ripples.scss",
        "/assets/scss/core/_sidebar-and-main-panel.scss",
        "/assets/scss/core/_tables.scss",
        "/assets/scss/core/_tabs.scss",
        "/assets/scss/core/_togglebutton.scss",
        "/assets/scss/core/_tooltip.scss",
        "/assets/scss/core/_type.scss",
        "/assets/scss/core/_variables.scss",
        "/assets/scss/core/cards/_card-plain.scss",
        "/assets/scss/core/cards/_card-profile.scss",
        "/assets/scss/core/cards/_card-stats.scss",
        "/assets/scss/core/mixins/_alert.scss",
        "/assets/scss/core/mixins/_animations.scss",
        "/assets/scss/core/mixins/_breakpoints.scss",
        "/assets/scss/core/mixins/_buttons.scss",
        "/assets/scss/core/mixins/_chartist.scss",
        "/assets/scss/core/mixins/_colored-shadows.scss",
        "/assets/scss/core/mixins/_drawer.scss",
        "/assets/scss/core/mixins/_forms.scss",
        "/assets/scss/core/mixins/_hover.scss",
        "/assets/scss/core/mixins/_layout.scss",
        "/assets/scss/core/mixins/_navbar-colors.scss",
        "/assets/scss/core/mixins/_navs.scss",
        "/assets/scss/core/mixins/_sidebar-color.scss",
        "/assets/scss/core/mixins/_transparency.scss",
        "/assets/scss/core/mixins/_type.scss",
        "/assets/scss/core/mixins/_utilities.scss",
        "/assets/scss/core/mixins/_variables.scss",
        "/assets/scss/core/mixins/_vendor-prefixes.scss",
        "/assets/scss/core/plugins/_animate.scss",
        "/assets/scss/core/plugins/_chartist.scss",
        "/assets/scss/core/plugins/_perfect-scrollbar.scss",
        "/assets/scss/core/variables/_body.scss",
        "/assets/scss/core/variables/_bootstrap-material-design-base.scss",
        "/assets/scss/core/variables/_bootstrap-material-design.scss",
        "/assets/scss/core/variables/_brand.scss",
        "/assets/scss/core/variables/_buttons.scss",
        "/assets/scss/core/variables/_card.scss",
        "/assets/scss/core/variables/_code.scss",
        "/assets/scss/core/variables/_colors-map.scss",
        "/assets/scss/core/variables/_colors.scss",
        "/assets/scss/core/variables/_custom-forms.scss",
        "/assets/scss/core/variables/_drawer.scss",
        "/assets/scss/core/variables/_dropdown.scss",
        "/assets/scss/core/variables/_forms.scss",
        "/assets/scss/core/variables/_layout.scss",
        "/assets/scss/core/variables/_list-group.scss",
        "/assets/scss/core/variables/_menu.scss",
        "/assets/scss/core/variables/_modals.scss",
        "/assets/scss/core/variables/_nav.scss",
        "/assets/scss/core/variables/_pagination.scss",
        "/assets/scss/core/variables/_shadow.scss",
        "/assets/scss/core/variables/_snackbar.scss",
        "/assets/scss/core/variables/_spacing.scss",
        "/assets/scss/core/variables/_state.scss",
        "/assets/scss/core/variables/_tables.scss",
        "/assets/scss/core/variables/_tooltip.scss",
        "/assets/scss/core/variables/_type.scss",
        "/assets/scss/material-dashboard.scss"
      ],
      "patterns": []
    }
  ],
  "dataGroups": [],
  "hashTable": {
    "/0.8c421ddf91b8fa98c191.js": "e275f8a3831d90c650821e8037de34805982fbdd",
    "/1.fdd5c9f4dc660575e1bc.js": "1764dce018ffd76e0653945586fc125c2ec63ff7",
    "/assets/css/demo.css": "668d84a89bd4b99d8d15db1bda75658e1366ce4e",
    "/assets/icons/icon-128x128.png": "4ecf45cfe4d7a7f73e62de4e419d38f3ebbb49c4",
    "/assets/icons/icon-144x144.png": "b7c1ed83b5a08270a86d783228e98621c50461b8",
    "/assets/icons/icon-152x152.png": "d3da78dc40eb6513828fc80e277952df0e3b8772",
    "/assets/icons/icon-192x192.png": "e2469f50c0ceb5442ee2702810f7c7d1bcd63ed0",
    "/assets/icons/icon-384x384.png": "75b2e7491a473a11f64eb377f92046a7ea62dcac",
    "/assets/icons/icon-512x512.png": "6708ca4e50b81ade48eb039893f89ed06ca45017",
    "/assets/icons/icon-72x72.png": "525672187149d5f39bf535cff75342fb15c88a6a",
    "/assets/icons/icon-96x96.png": "a90d8c58736c985674333400ae0edb9f6fbabfb4",
    "/assets/img/angular2-logo-red.png": "f0191f8d50460c560d9e28b29e849b4f44ed0bf4",
    "/assets/img/angular2-logo.png": "90740d086fd8ec0921bf4fec0baca484c6541754",
    "/assets/img/apple-icon.png": "50fd48b10e228af32823cf8154e45cffbf3f1794",
    "/assets/img/cover.jpeg": "0aeba83eab26fac8c1f0850cbb1fc1bc109e94b0",
    "/assets/img/faces/marc.jpg": "c0f0f7090e945962a1f2a9f85b975f1ad73e5715",
    "/assets/img/favicon.png": "9828b3bacd320f64173d0ea89aeaa2fda66fe0f9",
    "/assets/img/gears.gif": "7b1eca54e5fd267290468e0c63ad18fe28567922",
    "/assets/img/logo.png": "da7a1c2a9d6261a4f3d9d9f39c1c7c30bb3340c5",
    "/assets/img/mask.png": "ddaf8c9979f290f7d89defec2f9dbbebe71be8d1",
    "/assets/img/new_logo.png": "a1eab6e169ade519f090135d1a8fba8cf89907f6",
    "/assets/img/sidebar-1.jpg": "7e52f4c80ffbc51540150bd8a2f99e7851e6636b",
    "/assets/img/sidebar-2.jpg": "955b7c5056365c25e8bfc0f5977037aa788fb283",
    "/assets/img/sidebar-3.jpg": "6cf6f8ba4828aa802964e1a9e1ee93528b60b4fe",
    "/assets/img/sidebar-4.jpg": "0a1b00c842c66c0694c769ca2aea92f66649b2e3",
    "/assets/img/tim_80x80.png": "badc53cc7844979e5a9d65acebfc9b235f4f4dd9",
    "/assets/scss/core/_alerts.scss": "5ffca9a22b5b32d89d7819fa324e253c0c990bac",
    "/assets/scss/core/_buttons.scss": "6bd980b1d5e9d0a93503f6ae87d08bac01bd63e6",
    "/assets/scss/core/_cards.scss": "2d1500188bb087978d6fd63a6f73880ba729d069",
    "/assets/scss/core/_checkboxes.scss": "35d1f6048c51e445b0d3b095bc293d906651dc16",
    "/assets/scss/core/_dropdown.scss": "06e1e86f4c75e0c97af79e394d4fa528b1850f19",
    "/assets/scss/core/_example-pages.scss": "eba6c9eaa03298a6de2167ef7283c3f91d29321e",
    "/assets/scss/core/_fixed-plugin.scss": "65178b54d9996c03fe22fac90b3121c1df7d6667",
    "/assets/scss/core/_footers.scss": "5c207bcb778ef8b3609b1fabde354d35c176764c",
    "/assets/scss/core/_forms.scss": "ed5cd48f6f3e17cf84f8671b945c91eeae83f1fc",
    "/assets/scss/core/_images.scss": "8a3ce69c22ac61e45d991eb9ad6746894a92a163",
    "/assets/scss/core/_input-group.scss": "4c8f48d8a682b72ce774f909f19fe720db2147b7",
    "/assets/scss/core/_misc.scss": "bced9dca36ef52a1b3390aeffaab108976ae7546",
    "/assets/scss/core/_mixins.scss": "96bb3c8e11a0c561848607457240c8717826886b",
    "/assets/scss/core/_navbar.scss": "6673f97ff1b4bb2ae70391c56de42adb7b115b91",
    "/assets/scss/core/_popover.scss": "e76bc67cd9608830d3e460361a12367422d11900",
    "/assets/scss/core/_popups.scss": "f92ad50ed90b2cc653cc6ae6e62398dd874e1af9",
    "/assets/scss/core/_radios.scss": "fd139fe6d3f5585ed4a971e40e6b481fa58c6d9a",
    "/assets/scss/core/_responsive.scss": "bb3623c6793dafea5de511b52ed62ed2f32c4882",
    "/assets/scss/core/_ripples.scss": "e7bcad205e0d0c10447485a6eb5b076fe8bdf84f",
    "/assets/scss/core/_sidebar-and-main-panel.scss": "3b1ee29416125c33ba27d19f4aea6bd3e180ee5d",
    "/assets/scss/core/_tables.scss": "29b3459a8233fc39d140dcf795281663f310ad96",
    "/assets/scss/core/_tabs.scss": "150e208bc07afcb04c4fe56e11a9b4d6b4591ecb",
    "/assets/scss/core/_togglebutton.scss": "67dcd6f590baa4008a35371c03016c41e002f22b",
    "/assets/scss/core/_tooltip.scss": "4c284a4ccf83e78b1f581f698d49b5fc8bb97d8a",
    "/assets/scss/core/_type.scss": "432ec7b4448377e28c09c66789ae9fcdb2625fb1",
    "/assets/scss/core/_variables.scss": "ae0a529c8baa06cef959a0c3c40ae3232f7b629d",
    "/assets/scss/core/cards/_card-plain.scss": "1b3de2aa31477b2d4dd1cdfebcbff53b9f9e0af1",
    "/assets/scss/core/cards/_card-profile.scss": "34501352c134d3ae2045ea8b8456c18d260b8c95",
    "/assets/scss/core/cards/_card-stats.scss": "08f0d14ce5d193fbef40007340cd54db8486ecf0",
    "/assets/scss/core/mixins/_alert.scss": "8815633a82fbd1a6833d58a4b7bef633f97c1289",
    "/assets/scss/core/mixins/_animations.scss": "1e848ffeac8a54398f3e32d45f19a13ae48c1317",
    "/assets/scss/core/mixins/_breakpoints.scss": "9efc1e540e8b5860ab6654cad35ba6048c04345b",
    "/assets/scss/core/mixins/_buttons.scss": "fb153efdf414f2a4e6d2992b4a25cfeefd7cce73",
    "/assets/scss/core/mixins/_chartist.scss": "cf3f3b3e257c485e4030cf5d0e099b7634f17e60",
    "/assets/scss/core/mixins/_colored-shadows.scss": "7ea0abae25d0e97ba2004b67c414f83e252d4bcf",
    "/assets/scss/core/mixins/_drawer.scss": "0fea0dc0afad71474acc2bc805096f91550873fd",
    "/assets/scss/core/mixins/_forms.scss": "546ecfd17665a325903d97f0ce35380c1def626e",
    "/assets/scss/core/mixins/_hover.scss": "b04940ebcf490c38085438fba82cce6a4d8fc537",
    "/assets/scss/core/mixins/_layout.scss": "63a1e5329fcefcfe5dfd13533d85eb9081766a82",
    "/assets/scss/core/mixins/_navbar-colors.scss": "21e005df4d689c97454899716d47cecd0349985a",
    "/assets/scss/core/mixins/_navs.scss": "1e21663fb0b25ae2ea82cbd8c254cb7cb35d4224",
    "/assets/scss/core/mixins/_sidebar-color.scss": "7be9878969c69f81b561ab9392ae8f8e8f2eed16",
    "/assets/scss/core/mixins/_transparency.scss": "a0bf13b4dcd58ed1dff3ca80a0ee34d51012701f",
    "/assets/scss/core/mixins/_type.scss": "60c2153ff528a5826412280fab12dfa4c9efad9a",
    "/assets/scss/core/mixins/_utilities.scss": "dea1b9b93422f56967d985c0a9432e501d21315d",
    "/assets/scss/core/mixins/_variables.scss": "194bbf7a3b4e34fab278cbf2ef7852e9c209164f",
    "/assets/scss/core/mixins/_vendor-prefixes.scss": "b96475f5f456f53307f6e09727edb3a737d8ba15",
    "/assets/scss/core/plugins/_animate.scss": "fd02f985ee9cc3b94ba6b872260121645a7a49e0",
    "/assets/scss/core/plugins/_chartist.scss": "12f9f3af902b86493e14eedbd94d2123ae6c658e",
    "/assets/scss/core/plugins/_perfect-scrollbar.scss": "69d237af5cc1cc24a2a20c577a7d6a7f53ae09cb",
    "/assets/scss/core/variables/_body.scss": "b22543887fcb10c122626739b45f70689f7e3776",
    "/assets/scss/core/variables/_bootstrap-material-design-base.scss": "d5ac7d57bde8bd13107148f45b260400fb4d7824",
    "/assets/scss/core/variables/_bootstrap-material-design.scss": "a548eed530e779a56c24bae2b1c8f5dce7de6b38",
    "/assets/scss/core/variables/_brand.scss": "ff41b08250203a8e4c8d4a279fd3e98456cc5ba9",
    "/assets/scss/core/variables/_buttons.scss": "0249aefd30e71712967bcdd1d61f05eb64439b10",
    "/assets/scss/core/variables/_card.scss": "d18ef5fa033212041bc70ad6f3c71eaf05618501",
    "/assets/scss/core/variables/_code.scss": "b90b7d785783aad8d60228f2f69112559f5ac41b",
    "/assets/scss/core/variables/_colors-map.scss": "67abcff100f708865ecd63a76653b56562fdef47",
    "/assets/scss/core/variables/_colors.scss": "07523fcb4a8826d67122a80e946a1a2386e26ab0",
    "/assets/scss/core/variables/_custom-forms.scss": "0b989d9fed062bb9c8d9d3696af21ccffc31fd92",
    "/assets/scss/core/variables/_drawer.scss": "722e92f07e456a62203bb764393ebd59cc87ed06",
    "/assets/scss/core/variables/_dropdown.scss": "5be76c0f841b3a685613d42b1d2b4e249de8e166",
    "/assets/scss/core/variables/_forms.scss": "073a427993e90bc811b4cf1944c485b9091b0ab5",
    "/assets/scss/core/variables/_layout.scss": "e3122b80c137b9f588ce42f8dcf9561054365cd1",
    "/assets/scss/core/variables/_list-group.scss": "5fa5a603dc01fb563bdef3b78cffe1015188c6cf",
    "/assets/scss/core/variables/_menu.scss": "5d66719aff189c8dedece10ab4f7706de1f785a4",
    "/assets/scss/core/variables/_modals.scss": "1bf999d7f5d230e9e7d0ec74edddd87a0f272fee",
    "/assets/scss/core/variables/_nav.scss": "e582011bd7872e21a203b90023ed0eb60d538d24",
    "/assets/scss/core/variables/_pagination.scss": "4dd83aeb3d23d89408adaa7ce17162cd4f9cb340",
    "/assets/scss/core/variables/_shadow.scss": "342d15dd61f760f428ae86e7f75d7d6b248a304d",
    "/assets/scss/core/variables/_snackbar.scss": "9cf908d76500cee870d03872969845d933d3c22e",
    "/assets/scss/core/variables/_spacing.scss": "cccf0bd2c27b579f7401dd030adafa82eb7d4171",
    "/assets/scss/core/variables/_state.scss": "f8469a1e1dd24eea73d55e6fc4ba75a8bc122931",
    "/assets/scss/core/variables/_tables.scss": "5ca8f4e47b18938bd3e50e0097e4d817d2cc34c9",
    "/assets/scss/core/variables/_tooltip.scss": "1f087d506391eac676ba878372997500f170a8ca",
    "/assets/scss/core/variables/_type.scss": "711599807c20360629b1e28365af78a7022380ae",
    "/assets/scss/material-dashboard.scss": "aa070ae2b9ac03ecaed42cc8fd84dca845d9c238",
    "/favicon.ico": "49ee0ca75b09804d47603aae595dca8651db5ef7",
    "/firebase-messaging-sw.js": "3c54512c31e102aef625e3c0033f3a67ca297eda",
    "/index.html": "66be2a0999379796a77d9dbe4028ceff28ddbdd0",
    "/main.fef3979456debc9772ac.js": "8cd35b379b0b9dcf1aea44d0a4d2e1b442c76787",
    "/polyfills.f04ab6ec955bb97e2d53.js": "4627bdc9f8789c3e954c2f4b5ae95bb82620f5e1",
    "/runtime.3a8f3d94e5eda761c715.js": "9d9c6ce86b9e45b52207e9450b650a647c74ee76",
    "/scripts.b4ac9c7325a06a657b3b.js": "75f3f1cece408a74fe8eb7b1f6292caccc8d7a80",
    "/styles.6133e973cb09f2ed3806.css": "9f802108e3c7f612dae35343177f27ee6e1fb700"
  },
  "navigationUrls": [
    {
      "positive": true,
      "regex": "^\\/.*$"
    },
    {
      "positive": false,
      "regex": "^\\/(?:.+\\/)?[^/]*\\.[^/]*$"
    },
    {
      "positive": false,
      "regex": "^\\/(?:.+\\/)?[^/]*__[^/]*$"
    },
    {
      "positive": false,
      "regex": "^\\/(?:.+\\/)?[^/]*__[^/]*\\/.*$"
    }
  ]
}